<svg
   xmlns:dc="http://purl.org/dc/elements/1.1/"
   xmlns:cc="http://creativecommons.org/ns#"
   xmlns:rdf="http://www.w3.org/1999/02/22-rdf-syntax-ns#"
   xmlns:svg="http://www.w3.org/2000/svg"
   xmlns="http://www.w3.org/2000/svg"
   width="61.076954mm"
   height="65.47831mm"
   viewBox="0 0 216.4144 232.00976"
   version="1.1"
   aria-labelledby="mastodon-title">
  <title id="mastodon-title">{{ social_link[0] }}</title>
  <metadata
     id="metadata855">
    <rdf:RDF>
      <cc:Work
         rdf:about="">
        <dc:format>image/svg+xml</dc:format>
        <dc:type rdf:resource="http://purl.org/dc/dcmitype/StillImage" />
      </cc:Work>
    </rdf:RDF>
  </metadata>
  <defs
     id="defs853">
    <clipPath
       clipPathUnits="userSpaceOnUse"
       id="clipPath867">
      <path
         d="m 177.50984,80.077 v 60.94125 h -24.14375 v -59.15 c 0,-12.46875 -5.24625,-18.7975 -15.74,-18.7975 -11.6025,0 -17.4175,7.5075 -17.4175,22.3525 V 117.7995 H 96.207337 V 85.42325 c 0,-14.845 -5.816247,-22.3525 -17.418747,-22.3525 -10.49375,0 -15.74,6.32875 -15.74,18.7975 v 59.15 H 38.90484 V 80.077 c 0,-12.455 3.17125,-22.3525 9.54125,-29.675 6.56875,-7.3225 15.17125,-11.07625 25.85,-11.07625 12.355,0 21.71125,4.74875 27.8975,14.2475 l 6.01375,10.08125 6.015,-10.08125 c 6.185,-9.49875 15.54125,-14.2475 27.8975,-14.2475 10.6775,0 19.28,3.75375 25.85,11.07625 6.36875,7.3225 9.54,17.22 9.54,29.675"
         id="path869"
         style="display:none;stroke-width:1" />
      <path
         id="lpe_path-effect871"
         style="stroke-width:1"
         class="powerclip"
         d="M -5.000005,-5 H 221.4144 V 237.00976 H -5.000005 Z M 177.50984,80.077 c 0,-12.455 -3.17125,-22.3525 -9.54,-29.675 -6.57,-7.3225 -15.1725,-11.07625 -25.85,-11.07625 -12.35625,0 -21.7125,4.74875 -27.8975,14.2475 l -6.015,10.08125 -6.01375,-10.08125 c -6.18625,-9.49875 -15.5425,-14.2475 -27.8975,-14.2475 -10.67875,0 -19.28125,3.75375 -25.85,11.07625 -6.37,7.3225 -9.54125,17.22 -9.54125,29.675 v 60.94125 h 24.14375 v -59.15 c 0,-12.46875 5.24625,-18.7975 15.74,-18.7975 11.6025,0 17.418747,7.5075 17.418747,22.3525 V 117.7995 H 120.20859 V 85.42325 c 0,-14.845 5.815,-22.3525 17.4175,-22.3525 10.49375,0 15.74,6.32875 15.74,18.7975 v 59.15 h 24.14375 V 80.077" />
    </clipPath>
  </defs>
  <path
     d="m 211.80734,139.0875 c -3.18125,16.36625 -28.4925,34.2775 -57.5625,37.74875 -15.15875,1.80875 -30.08375,3.47125 -45.99875,2.74125 -26.0275,-1.1925 -46.565,-6.2125 -46.565,-6.2125 0,2.53375 0.15625,4.94625 0.46875,7.2025 3.38375,25.68625 25.47,27.225 46.39125,27.9425 21.11625,0.7225 39.91875,-5.20625 39.91875,-5.20625 l 0.8675,19.09 c 0,0 -14.77,7.93125 -41.08125,9.39 -14.50875,0.7975 -32.52375,-0.365 -53.50625,-5.91875 C 9.23234,213.82 1.40609,165.31125 0.20859,116.09125 -0.15641,101.4775 0.06859,87.6975 0.06859,76.1725 0.06859,25.8425 33.04484,11.09 33.04484,11.09 49.67234,3.45375 78.20359,0.2425 107.86484,0 h 0.72875 c 29.66125,0.2425 58.21125,3.45375 74.8375,11.09 0,0 32.975,14.7525 32.975,65.0825 0,0 0.41375,37.13375 -4.59875,62.915"
     id="path845"
     clip-path="url(#clipPath867)" />
</svg>
